[
    {
        "name": "Jamaica",
        "key": "jamaica"
    },
    {
        "name": "Trinidad and Tobago",
        "key": "trinidad"
    },
    {
        "name": "Costa Rica",
        "key": "cr"
    },
    {
        "name": "Ecuador",
        "key" : "ecu"
    }
]